# Blender MTL File: 'hex crystal.blend'
# Material Count: 2

newmtl End_Mat
Ns 96.078431
Ka 1.000000 1.000000 1.000000
Kd 0.640000 0.640000 0.640000
Ks 0.500000 0.500000 0.500000
Ke 0.000000 0.000000 0.000000
Ni 1.000000
d 1.000000
illum 2

newmtl Side_Mat
Ns 96.078431
Ka 1.000000 1.000000 1.000000
Kd 0.640000 0.371605 0.494084
Ks 0.500000 0.500000 0.500000
Ke 0.000000 0.000000 0.000000
Ni 1.000000
d 1.000000
illum 2
